…
    ## Calculating cluster 5

    ## Calculating cluster 6

    ## Calculating cluster 7

    ## Calculating cluster 8

``` r
pbmc.markers %>%
  group_by(cluster) %>%
  dplyr::filter(avg_log2FC > 1)
```

    ## # A tibble: 928 × 7
    ## # Groups:   cluster [9]
    ##        p_val avg_log2FC pct.1 pct.2 p_val_adj cluster gene     
    ##        <dbl>      <dbl> <dbl> <dbl>     <dbl> <fct>   <chr>    
    ##  1 1.74e-109       1.07 0.897 0.593 2.39e-105 0       LDHB     
    ##  2 1.17e- 83       1.33 0.435 0.108 1.60e- 79 0       CCR7     
    ##  3 3.28e- 49       1.05 0.333 0.103 4.50e- 45 0       LEF1     
    ##  4 9.31e- 44       1.03 0.328 0.11  1.28e- 39 0       PRKCQ-AS1
    ##  5 5.46e- 29       1.09 0.242 0.085 7.48e- 25 0       LDLRAP1  
    ##  6 0               5.57 0.996 0.215 0         1       S100A9   
    ##  7 0               5.48 0.975 0.121 0         1       S100A8   
    ##  8 0               3.80 0.908 0.059 0         1       LGALS2   
    ##  9 0               3.39 0.952 0.151 0         1       FCN1     
    ## 10 2.86e-294       2.82 0.667 0.028 3.92e-290 1       CD14     
    ## # … with 918 more rows
…
