…
    ## Calculating cluster 5

    ## Calculating cluster 6

    ## Calculating cluster 7

    ## Calculating cluster 8

``` r
pbmc.markers %>%
  group_by(cluster) %>%
  dplyr::filter(avg_log2FC > 1)
```

    ## # A tibble: 7,046 × 7
    ## # Groups:   cluster [9]
    ##        p_val avg_log2FC pct.1 pct.2 p_val_adj cluster gene     
    ##        <dbl>      <dbl> <dbl> <dbl>     <dbl> <fct>   <chr>    
    ##  1 1.74e-109       1.19 0.897 0.593 2.39e-105 0       LDHB     
    ##  2 1.17e- 83       2.37 0.435 0.108 1.60e- 79 0       CCR7     
    ##  3 8.94e- 79       1.09 0.838 0.403 1.23e- 74 0       CD3D     
    ##  4 3.05e- 53       1.02 0.722 0.399 4.19e- 49 0       CD3E     
    ##  5 3.28e- 49       2.10 0.333 0.103 4.50e- 45 0       LEF1     
    ##  6 6.66e- 49       1.25 0.623 0.358 9.13e- 45 0       NOSIP    
    ##  7 9.31e- 44       2.02 0.328 0.11  1.28e- 39 0       PRKCQ-AS1
    ##  8 4.69e- 43       1.53 0.435 0.184 6.43e- 39 0       PIK3IP1  
    ##  9 1.47e- 39       2.70 0.195 0.04  2.01e- 35 0       FHIT     
    ## 10 2.44e- 33       1.94 0.262 0.087 3.34e- 29 0       MAL      
    ## # ℹ 7,036 more rows
…
